program3_trace.vcd
$date
     Oct 04, 2021       22:06:34
$end

$version
 SystemC 2.3.3-Accellera --- Aug 24 2021 23:20:20
$end

$timescale
     1 ps
$end

$scope module SystemC $end
$var wire    1  aaaaa  clock       $end
$var wire   16  aaaab  pm_addr [15:0]  $end
$var wire    1  aaaac  pm_en_read       $end
$var wire   16  aaaad  pm_data_out [15:0]  $end
$var wire    1  aaaae  rf_en_r1       $end
$var wire    4  aaaaf  rf_addr_r1 [3:0]  $end
$var wire   16  aaaag  rf_data_r1 [15:0]  $end
$var wire    1  aaaah  rf_en_r2       $end
$var wire    4  aaaai  rf_addr_r2 [3:0]  $end
$var wire   16  aaaaj  rf_data_r2 [15:0]  $end
$var wire    1  aaaak  rf_en_rw       $end
$var wire    4  aaaal  rf_addr_rw [3:0]  $end
$var wire   16  aaaam  rf_data_rw [15:0]  $end
$var wire   16  aaaan  dm_addr [15:0]  $end
$var wire    1  aaaao  dm_en_write       $end
$var wire   16  aaaap  dm_data_in [15:0]  $end
$var wire   16  aaaaq  dm_data_out [15:0]  $end
$var wire    1  aaaar  al_c1       $end
$var wire    1  aaaas  al_c2       $end
$var wire    1  aaaat  al_c3       $end
$var wire    1  aaaau  al_c4       $end
$var wire    1  aaaav  al_c5       $end
$var wire    1  aaaaw  al_c6       $end
$var wire    3  aaaax  al_cop [2:0]  $end
$var wire    3  aaaay  al_psr [2:0]  $end
$var wire   16  aaaaz  alu_imm [15:0]  $end
$var wire   16  aaaba  alu_input_con [15:0]  $end
$var wire   16  aaabb  alu_output_con [15:0]  $end
$upscope $end
$enddefinitions  $end

$comment
All initial values are dumped below at time 0 sec = 0 timescale units.
$end

$dumpvars
0aaaaa
b0 aaaab
1aaaac
b0 aaaad
0aaaae
b0 aaaaf
b0 aaaag
0aaaah
b0 aaaai
b0 aaaaj
0aaaak
b0 aaaal
b0 aaaam
b0 aaaan
0aaaao
b0 aaaap
b1111 aaaaq
0aaaar
0aaaas
0aaaat
0aaaau
0aaaav
0aaaaw
b10 aaaax
b0 aaaay
b0 aaaaz
b0 aaaba
b0 aaabb
$end

#2500
1aaaaa

#5000
0aaaaa

#7500
1aaaaa

#10000
0aaaaa

#12500
1aaaaa

#15000
0aaaaa

#17500
1aaaaa

#20000
0aaaaa

#22500
1aaaaa
b1 aaaab

#25000
0aaaaa

#27500
1aaaaa

#30000
0aaaaa

#32500
1aaaaa

#35000
0aaaaa

#37500
1aaaaa
b10 aaaab

#40000
0aaaaa

#42500
1aaaaa

#45000
0aaaaa

#47500
1aaaaa

#50000
0aaaaa

#52500
1aaaaa
b11 aaaab

#55000
0aaaaa

#57500
1aaaaa

#60000
0aaaaa

#62500
1aaaaa

#65000
0aaaaa

#67500
1aaaaa
b100 aaaab

#70000
0aaaaa

#72500
1aaaaa

#75000
0aaaaa

#77500
1aaaaa

#80000
0aaaaa

#82500
1aaaaa
b101 aaaab

#85000
0aaaaa
b1001010001 aaaad

#87500
1aaaaa

#90000
0aaaaa

#92500
1aaaaa

#95000
0aaaaa

#97500
1aaaaa
b110 aaaab
1aaaae
b1 aaaaf
1aaaah
b10 aaaai

#100000
0aaaaa
b1101010001 aaaad

#102500
1aaaaa
0aaaae
b0 aaaaf
b101 aaaag
0aaaah
b0 aaaai
b10 aaaaj
b10 aaaan
b101 aaaap
b11 aaaax
b1010001 aaaaz
b10 aaabb

#105000
0aaaaa

#107500
1aaaaa
b1101 aaaaq
b10 aaaax
b0 aaaaz

#110000
0aaaaa

#112500
1aaaaa
b111 aaaab
1aaaae
b1 aaaaf
1aaaah
b11 aaaai
1aaaak
b10 aaaal
b111 aaaam

#115000
0aaaaa
b10001010001 aaaad

#117500
1aaaaa
0aaaae
b0 aaaaf
0aaaah
b0 aaaai
b11 aaaaj
0aaaak
b0 aaaal
b11 aaaan
b11 aaaax
b1010001 aaaaz
b11 aaabb

#120000
0aaaaa

#122500
1aaaaa
b1100 aaaaq
b10 aaaax
b0 aaaaz

#125000
0aaaaa

#127500
1aaaaa
b1000 aaaab
1aaaae
b1 aaaaf
1aaaah
b100 aaaai
1aaaak
b11 aaaal
b1000 aaaam

#130000
0aaaaa
b101010101 aaaad

#132500
1aaaaa
0aaaae
b0 aaaaf
0aaaah
b0 aaaai
b100 aaaaj
0aaaak
b0 aaaal
b110 aaaam
b100 aaaan
b11 aaaax
b1010001 aaaaz
b100 aaabb

#135000
0aaaaa

#137500
1aaaaa
b1011 aaaaq
b10 aaaax
b0 aaaaz

#140000
0aaaaa

#142500
1aaaaa
b1001 aaaab
1aaaae
b101 aaaaf
1aaaah
b1 aaaai
1aaaak
b100 aaaal
b1001 aaaam

#145000
0aaaaa
b1011000100001100 aaaad

#147500
1aaaaa
0aaaae
b0 aaaaf
0aaaah
b0 aaaai
b101 aaaaj
0aaaak
b0 aaaal
b1 aaaam
b101 aaaan
b11 aaaax
b1010101 aaaaz
b101 aaabb

#150000
0aaaaa

#152500
1aaaaa
b1010 aaaaq
b10 aaaax
b0 aaaaz

#155000
0aaaaa

#157500
1aaaaa
b1010 aaaab
b1100 aaaaf
1aaaah
b1 aaaai
1aaaak
b1 aaaal
b1010 aaaam

#160000
0aaaaa
b0 aaaad

#162500
1aaaaa
b0 aaaaf
0aaaah
b0 aaaai
b1010 aaaaj
0aaaak
b0 aaaal
b0 aaaam
b1010 aaaan
b1111111111110100 aaaap
1aaaat
1aaaau
b11 aaaax
b10 aaaay
b1100 aaaaz
b1010 aaabb

#165000
0aaaaa

#167500
1aaaaa
b101 aaaap
b101 aaaaq
0aaaat
0aaaau
b10 aaaax
b0 aaaaz

#170000
0aaaaa

#172500
1aaaaa
b1011 aaaab
b1 aaaal
b1111111111111110 aaaam

#175000
0aaaaa

#177500
1aaaaa
b0 aaaal
b1111 aaaam

#180000
0aaaaa

#182500
1aaaaa

#185000
0aaaaa

#187500
1aaaaa
b1100 aaaab

#190000
0aaaaa
b100000111001010 aaaad

#192500
1aaaaa

#195000
0aaaaa

#197500
1aaaaa

#200000
0aaaaa

#202500
1aaaaa
b1101 aaaab
1aaaae
b1010 aaaaf
b1 aaaai

#205000
0aaaaa
b0 aaaad

#207500
1aaaaa
0aaaae
b0 aaaaf
b1010 aaaag
b0 aaaai
b1010 aaaap
1aaaar
b111 aaaax
b11001010 aaaaz

#210000
0aaaaa

#212500
1aaaaa
0aaaar
b10 aaaax
b0 aaaaz

#215000
0aaaaa

#217500
1aaaaa
b1010 aaaab
b1 aaaal
b1010 aaaam

#220000
0aaaaa

#222500
1aaaaa
b0 aaaal
b0 aaaam

#225000
0aaaaa

#227500
1aaaaa

#230000
0aaaaa

#232500
1aaaaa
b1011 aaaab

#235000
0aaaaa

#237500
1aaaaa

#240000
0aaaaa

#242500
1aaaaa

#245000
0aaaaa

#247500
1aaaaa
b1100 aaaab

#250000
0aaaaa
b100000111001010 aaaad

#252500
1aaaaa

#255000
0aaaaa

#257500
1aaaaa

#260000
0aaaaa

#262500
1aaaaa
b1101 aaaab
1aaaae
b1010 aaaaf
b1 aaaai

#265000
0aaaaa
b0 aaaad

#267500
1aaaaa
0aaaae
b0 aaaaf
b0 aaaai
1aaaar
b111 aaaax
b11001010 aaaaz

#270000
0aaaaa

#272500
1aaaaa
0aaaar
b10 aaaax
b0 aaaaz

#275000
0aaaaa

#277500
1aaaaa
b1010 aaaab
b1 aaaal
b1010 aaaam

#280000
0aaaaa

#282500
1aaaaa
b0 aaaal
b0 aaaam

#285000
0aaaaa

#287500
1aaaaa

#290000
0aaaaa

#292500
1aaaaa
b1011 aaaab

#295000
0aaaaa

#297500
1aaaaa

#300000
0aaaaa

#302500
1aaaaa

#305000
0aaaaa

#307500
1aaaaa
b1100 aaaab

#310000
0aaaaa
b100000111001010 aaaad

#312500
1aaaaa

#315000
0aaaaa

#317500
1aaaaa

#320000
0aaaaa

#322500
1aaaaa
b1101 aaaab
1aaaae
b1010 aaaaf
b1 aaaai

#325000
0aaaaa
b0 aaaad

#327500
1aaaaa
0aaaae
b0 aaaaf
b0 aaaai
1aaaar
b111 aaaax
b11001010 aaaaz

#330000
0aaaaa

#332500
1aaaaa
0aaaar
b10 aaaax
b0 aaaaz

#335000
0aaaaa

#337500
1aaaaa
b1010 aaaab
b1 aaaal
b1010 aaaam

#340000
0aaaaa

#342500
1aaaaa
b0 aaaal
b0 aaaam

#345000
0aaaaa

#347500
1aaaaa

#350000
0aaaaa

#352500
1aaaaa
b1011 aaaab

#355000
0aaaaa

#357500
1aaaaa

#360000
0aaaaa

#362500
1aaaaa

#365000
0aaaaa

#367500
1aaaaa
b1100 aaaab

#370000
0aaaaa
b100000111001010 aaaad

#372500
1aaaaa

#375000
0aaaaa

#377500
1aaaaa

#380000
0aaaaa

#382500
1aaaaa
b1101 aaaab
1aaaae
b1010 aaaaf
b1 aaaai

