pm/pm_trace.vcd
$date
     Sep 19, 2021       17:03:00
$end

$version
 SystemC 2.3.3-Accellera --- Aug 24 2021 23:20:20
$end

$timescale
     1 ps
$end

$scope module SystemC $end
$var wire    1  aaaaa  clock       $end
$var wire   16  aaaab  addr [15:0]  $end
$var wire    1  aaaac  en_read       $end
$var wire   16  aaaad  data_out [15:0]  $end
$upscope $end
$enddefinitions  $end

$comment
All initial values are dumped below at time 0 sec = 0 timescale units.
$end

$dumpvars
0aaaaa
b0 aaaab
1aaaac
b0 aaaad
$end

#5000
1aaaaa

#10000
0aaaaa

#12500
b1 aaaab

#15000
1aaaaa
b1100 aaaad

#20000
0aaaaa

#22500
b10 aaaab

#25000
1aaaaa
b11000 aaaad

#30000
0aaaaa

#32500
b11 aaaab

#35000
1aaaaa

#40000
0aaaaa

#42500
b100 aaaab

#45000
1aaaaa
b11110 aaaad

#50000
0aaaaa

#52500
b101 aaaab

#55000
1aaaaa
b0 aaaad

#60000
0aaaaa

#62500
b110 aaaab

#65000
1aaaaa

#70000
0aaaaa

#72500
b111 aaaab

#75000
1aaaaa

#80000
0aaaaa

#82500
b1000 aaaab

#85000
1aaaaa
b1100 aaaad

#90000
0aaaaa

#92500
b1001 aaaab

#95000
1aaaaa
b100010 aaaad

#100000
0aaaaa

#102500
b1010 aaaab

#105000
1aaaaa
b111000 aaaad

#110000
0aaaaa

#112500
b1011 aaaab

#115000
1aaaaa
b0 aaaad

#120000
0aaaaa

#122500
b1100 aaaab

#125000
1aaaaa
b1111111111101000 aaaad

#130000
0aaaaa

#132500
b1101 aaaab

#135000
1aaaaa
b1111111111110100 aaaad

#140000
0aaaaa

#142500
b1110 aaaab

#145000
1aaaaa
b0 aaaad

#150000
0aaaaa

#152500
b1111 aaaab

#155000
1aaaaa
b1 aaaad

