dm/dm_trace.vcd
$date
     Sep 19, 2021       17:11:47
$end

$version
 SystemC 2.3.3-Accellera --- Aug 24 2021 23:20:20
$end

$timescale
     1 ps
$end

$scope module SystemC $end
$var wire    1  aaaaa  clock       $end
$var wire   16  aaaab  addr [15:0]  $end
$var wire    1  aaaac  en_write       $end
$var wire   16  aaaad  data_in [15:0]  $end
$var wire   16  aaaae  data_out [15:0]  $end
$upscope $end
$enddefinitions  $end

$comment
All initial values are dumped below at time 0 sec = 0 timescale units.
$end

$dumpvars
0aaaaa
b0 aaaab
1aaaac
b0 aaaad
b0 aaaae
$end

#5000
1aaaaa

#10000
0aaaaa

#12500
b1 aaaab
b1 aaaad

#15000
1aaaaa

#20000
0aaaaa

#22500
b10 aaaab
b10 aaaad

#25000
1aaaaa

#30000
0aaaaa

#32500
b11 aaaab
b11 aaaad

#35000
1aaaaa

#40000
0aaaaa

#42500
b100 aaaab
b100 aaaad

#45000
1aaaaa

#50000
0aaaaa

#52500
b101 aaaab
b101 aaaad

#55000
1aaaaa

#60000
0aaaaa

#62500
b110 aaaab
b110 aaaad

#65000
1aaaaa

#70000
0aaaaa

#72500
b111 aaaab
b111 aaaad

#75000
1aaaaa

#80000
0aaaaa

#82500
b1000 aaaab
b1000 aaaad

#85000
1aaaaa

#90000
0aaaaa

#92500
b1001 aaaab
b1001 aaaad

#95000
1aaaaa

#100000
0aaaaa

#102500
b1010 aaaab
b1010 aaaad

#105000
1aaaaa

#110000
0aaaaa

#112500
b1011 aaaab
b1011 aaaad

#115000
1aaaaa

#120000
0aaaaa

#122500
b1100 aaaab
b1100 aaaad

#125000
1aaaaa

#130000
0aaaaa

#132500
b1101 aaaab
b1101 aaaad

#135000
1aaaaa

#140000
0aaaaa

#142500
b1110 aaaab
b1110 aaaad

#145000
1aaaaa

#150000
0aaaaa

#152500
b1111 aaaab
b1111 aaaad

#155000
1aaaaa

#160000
0aaaaa

#165000
0aaaac

#167500
b0 aaaab

#170000
1aaaaa

#175000
0aaaaa

#177500
b1 aaaab

#180000
1aaaaa
b1 aaaae

#185000
0aaaaa

#187500
b10 aaaab

#190000
1aaaaa
b10 aaaae

#195000
0aaaaa

#197500
b11 aaaab

#200000
1aaaaa
b11 aaaae

#205000
0aaaaa

#207500
b100 aaaab

#210000
1aaaaa
b100 aaaae

#215000
0aaaaa

#217500
b101 aaaab

#220000
1aaaaa
b101 aaaae

#225000
0aaaaa

#227500
b110 aaaab

#230000
1aaaaa
b110 aaaae

#235000
0aaaaa

#237500
b111 aaaab

#240000
1aaaaa
b111 aaaae

#245000
0aaaaa

#247500
b1000 aaaab

#250000
1aaaaa
b1000 aaaae

#255000
0aaaaa

#257500
b1001 aaaab

#260000
1aaaaa
b1001 aaaae

#265000
0aaaaa

#267500
b1010 aaaab

#270000
1aaaaa
b1010 aaaae

#275000
0aaaaa

#277500
b1011 aaaab

#280000
1aaaaa
b1011 aaaae

#285000
0aaaaa

#287500
b1100 aaaab

#290000
1aaaaa
b1100 aaaae

#295000
0aaaaa

#297500
b1101 aaaab

#300000
1aaaaa
b1101 aaaae

#305000
0aaaaa

#307500
b1110 aaaab

#310000
1aaaaa
b1110 aaaae

#315000
0aaaaa

#317500
b1111 aaaab

#320000
1aaaaa
b1111 aaaae

