dm/dm_trace.vcd
$date
     Sep 23, 2021       21:40:45
$end

$version
 SystemC 2.3.3-Accellera --- Aug 28 2021 19:31:24
$end

$timescale
     1 ps
$end

$scope module SystemC $end
$var wire    1  aaaaa  clock       $end
$var wire   16  aaaab  addr [15:0]  $end
$var wire    1  aaaac  en_write       $end
$var wire   16  aaaad  data_in [15:0]  $end
$var wire   16  aaaae  data_out [15:0]  $end
$upscope $end
$enddefinitions  $end

$comment
All initial values are dumped below at time 0 sec = 0 timescale units.
$end

$dumpvars
0aaaaa
b0 aaaab
0aaaac
b0 aaaad
b0 aaaae
$end

#5000
1aaaaa

#10000
0aaaaa

#12500
b1 aaaab

#15000
1aaaaa
b1100 aaaae

#20000
0aaaaa

#22500
b10 aaaab

#25000
1aaaaa
b11000 aaaae

#30000
0aaaaa

#32500
b11 aaaab

#35000
1aaaaa

#40000
0aaaaa

#42500
b100 aaaab

#45000
1aaaaa
b11110 aaaae

#50000
0aaaaa

#52500
b101 aaaab

#55000
1aaaaa
b0 aaaae

#60000
0aaaaa

#62500
b110 aaaab

#65000
1aaaaa

#70000
0aaaaa

#72500
b111 aaaab

#75000
1aaaaa

#80000
0aaaaa

#82500
b1000 aaaab

#85000
1aaaaa
b1100 aaaae

#90000
0aaaaa

#92500
b1001 aaaab

#95000
1aaaaa
b100010 aaaae

#100000
0aaaaa

#102500
b1010 aaaab

#105000
1aaaaa
b111000 aaaae

#110000
0aaaaa

#112500
b1011 aaaab

#115000
1aaaaa
b0 aaaae

#120000
0aaaaa

#122500
b1100 aaaab

#125000
1aaaaa
b1111111111101000 aaaae

#130000
0aaaaa

#132500
b1101 aaaab

#135000
1aaaaa
b1111111111110100 aaaae

#140000
0aaaaa

#142500
b1110 aaaab

#145000
1aaaaa
b0 aaaae

#150000
0aaaaa

#152500
b1111 aaaab

#155000
1aaaaa
b1 aaaae

#160000
0aaaaa

#165000
1aaaac

#167500
b0 aaaab

#170000
1aaaaa

#175000
0aaaaa

#177500
b1 aaaab
b1 aaaad

#180000
1aaaaa

#185000
0aaaaa

#187500
b10 aaaab
b10 aaaad

#190000
1aaaaa

#195000
0aaaaa

#197500
b11 aaaab
b11 aaaad

#200000
1aaaaa

#205000
0aaaaa

#207500
b100 aaaab
b100 aaaad

#210000
1aaaaa

#215000
0aaaaa

#217500
b101 aaaab
b101 aaaad

#220000
1aaaaa

#225000
0aaaaa

#227500
b110 aaaab
b110 aaaad

#230000
1aaaaa

#235000
0aaaaa

#237500
b111 aaaab
b111 aaaad

#240000
1aaaaa

#245000
0aaaaa

#247500
b1000 aaaab
b1000 aaaad

#250000
1aaaaa

#255000
0aaaaa

#257500
b1001 aaaab
b1001 aaaad

#260000
1aaaaa

#265000
0aaaaa

#267500
b1010 aaaab
b1010 aaaad

#270000
1aaaaa

#275000
0aaaaa

#277500
b1011 aaaab
b1011 aaaad

#280000
1aaaaa

#285000
0aaaaa

#287500
b1100 aaaab
b1100 aaaad

#290000
1aaaaa

#295000
0aaaaa

#297500
b1101 aaaab
b1101 aaaad

#300000
1aaaaa

#305000
0aaaaa

#307500
b1110 aaaab
b1110 aaaad

#310000
1aaaaa

#315000
0aaaaa

#317500
b1111 aaaab
b1111 aaaad

