rf/rf_trace.vcd
$date
     Sep 23, 2021       22:08:17
$end

$version
 SystemC 2.3.3-Accellera --- Aug 28 2021 19:31:24
$end

$timescale
     1 ps
$end

$scope module SystemC $end
$var wire    1  aaaaa  clock       $end
$var wire    1  aaaab  en_r1       $end
$var wire    4  aaaac  addr_r1 [3:0]  $end
$var wire   16  aaaad  data_r1 [15:0]  $end
$var wire    1  aaaae  en_r2       $end
$var wire    4  aaaaf  addr_r2 [3:0]  $end
$var wire   16  aaaag  data_r2 [15:0]  $end
$var wire    1  aaaah  en_rw       $end
$var wire    4  aaaai  addr_rw [3:0]  $end
$var wire   16  aaaaj  data_rw [15:0]  $end
$upscope $end
$enddefinitions  $end

$comment
All initial values are dumped below at time 0 sec = 0 timescale units.
$end

$dumpvars
0aaaaa
1aaaab
b0 aaaac
b0 aaaad
1aaaae
b0 aaaaf
b0 aaaag
0aaaah
b0 aaaai
b0 aaaaj
$end

#2500
b1 aaaac
b1 aaaai

#5000
1aaaaa
b1100 aaaad

#10000
0aaaaa

#12500
b10 aaaac
b1 aaaaf
b10 aaaai

#15000
1aaaaa
b11000 aaaad
b1100 aaaag

#20000
0aaaaa

#22500
b11 aaaac
b10 aaaaf
b11 aaaai

#25000
1aaaaa
b11000 aaaag

#30000
0aaaaa

#32500
b100 aaaac
b11 aaaaf
b100 aaaai

#35000
1aaaaa
b11110 aaaad

#40000
0aaaaa

#42500
b101 aaaac
b100 aaaaf
b101 aaaai

#45000
1aaaaa
b0 aaaad
b11110 aaaag

#50000
0aaaaa

#52500
b110 aaaac
b101 aaaaf
b110 aaaai

#55000
1aaaaa
b0 aaaag

#60000
0aaaaa

#62500
b111 aaaac
b110 aaaaf
b111 aaaai

#65000
1aaaaa

#70000
0aaaaa

#72500
b1000 aaaac
b111 aaaaf
b1000 aaaai

#75000
1aaaaa
b1100 aaaad

#80000
0aaaaa

#82500
b1001 aaaac
b1000 aaaaf
b1001 aaaai

#85000
1aaaaa
b100010 aaaad
b1100 aaaag

#90000
0aaaaa

#92500
b1010 aaaac
b1001 aaaaf
b1010 aaaai

#95000
1aaaaa
b111000 aaaad
b100010 aaaag

#100000
0aaaaa

#102500
b1011 aaaac
b1010 aaaaf
b1011 aaaai

#105000
1aaaaa
b0 aaaad
b111000 aaaag

#110000
0aaaaa

#112500
b1100 aaaac
b1011 aaaaf
b1100 aaaai

#115000
1aaaaa
b1111111111101000 aaaad
b0 aaaag

#120000
0aaaaa

#122500
b1101 aaaac
b1100 aaaaf
b1101 aaaai

#125000
1aaaaa
b1111111111110100 aaaad
b1111111111101000 aaaag

#130000
0aaaaa

#132500
b1110 aaaac
b1101 aaaaf
b1110 aaaai

#135000
1aaaaa
b0 aaaad
b1111111111110100 aaaag

#140000
0aaaaa

#142500
b1111 aaaac
b1110 aaaaf
b1111 aaaai

#145000
1aaaaa
b1 aaaad
b0 aaaag

#150000
0aaaaa
0aaaab
0aaaae
1aaaah

#152500
b1 aaaai
b10 aaaaj

#155000
1aaaaa

#160000
0aaaaa

#162500
b10 aaaai
b100 aaaaj

#165000
1aaaaa

#170000
0aaaaa

#172500
b11 aaaai
b110 aaaaj

#175000
1aaaaa

#180000
0aaaaa

#182500
b100 aaaai
b1000 aaaaj

#185000
1aaaaa

#190000
0aaaaa

#192500
b101 aaaai
b1010 aaaaj

#195000
1aaaaa

#200000
0aaaaa

#202500
b110 aaaai
b1100 aaaaj

#205000
1aaaaa

#210000
0aaaaa

#212500
b111 aaaai
b1110 aaaaj

#215000
1aaaaa

#220000
0aaaaa

#222500
b1000 aaaai
b10000 aaaaj

#225000
1aaaaa

#230000
0aaaaa

#232500
b1001 aaaai
b10010 aaaaj

#235000
1aaaaa

#240000
0aaaaa

#242500
b1010 aaaai
b10100 aaaaj

#245000
1aaaaa

#250000
0aaaaa

#252500
b1011 aaaai
b10110 aaaaj

#255000
1aaaaa

#260000
0aaaaa

#262500
b1100 aaaai
b11000 aaaaj

#265000
1aaaaa

#270000
0aaaaa

#272500
b1101 aaaai
b11010 aaaaj

#275000
1aaaaa

#280000
0aaaaa

#282500
b1110 aaaai
b11100 aaaaj

#285000
1aaaaa

#290000
0aaaaa

#292500
b1111 aaaai
b11110 aaaaj

#295000
1aaaaa

#300000
0aaaaa
1aaaab
1aaaae
0aaaah

#302500
b1 aaaac
b0 aaaaf
b1 aaaai

#305000
1aaaaa
b10 aaaad

#310000
0aaaaa

#312500
b10 aaaac
b1 aaaaf
b10 aaaai

#315000
1aaaaa
b100 aaaad
b10 aaaag

#320000
0aaaaa

#322500
b11 aaaac
b10 aaaaf
b11 aaaai

#325000
1aaaaa
b110 aaaad
b100 aaaag

#330000
0aaaaa

#332500
b100 aaaac
b11 aaaaf
b100 aaaai

#335000
1aaaaa
b1000 aaaad
b110 aaaag

#340000
0aaaaa

#342500
b101 aaaac
b100 aaaaf
b101 aaaai

#345000
1aaaaa
b1010 aaaad
b1000 aaaag

#350000
0aaaaa

#352500
b110 aaaac
b101 aaaaf
b110 aaaai

#355000
1aaaaa
b1100 aaaad
b1010 aaaag

#360000
0aaaaa

#362500
b111 aaaac
b110 aaaaf
b111 aaaai

#365000
1aaaaa
b1110 aaaad
b1100 aaaag

#370000
0aaaaa

#372500
b1000 aaaac
b111 aaaaf
b1000 aaaai

#375000
1aaaaa
b10000 aaaad
b1110 aaaag

#380000
0aaaaa

#382500
b1001 aaaac
b1000 aaaaf
b1001 aaaai

#385000
1aaaaa
b10010 aaaad
b10000 aaaag

#390000
0aaaaa

#392500
b1010 aaaac
b1001 aaaaf
b1010 aaaai

#395000
1aaaaa
b10100 aaaad
b10010 aaaag

#400000
0aaaaa

#402500
b1011 aaaac
b1010 aaaaf
b1011 aaaai

#405000
1aaaaa
b10110 aaaad
b10100 aaaag

#410000
0aaaaa

#412500
b1100 aaaac
b1011 aaaaf
b1100 aaaai

#415000
1aaaaa
b11000 aaaad
b10110 aaaag

#420000
0aaaaa

#422500
b1101 aaaac
b1100 aaaaf
b1101 aaaai

#425000
1aaaaa
b11010 aaaad
b11000 aaaag

#430000
0aaaaa

#432500
b1110 aaaac
b1101 aaaaf
b1110 aaaai

#435000
1aaaaa
b11100 aaaad
b11010 aaaag

#440000
0aaaaa

#442500
b1111 aaaac
b1110 aaaaf
b1111 aaaai

#445000
1aaaaa
b0 aaaad
b11100 aaaag

